Smooth Probabilities — smooth_prob • smoothscale
…
## use tidyverse functions to smooth
## each age-sex group towards a
## different average
library(dplyr, warn.conflicts = FALSE)
census |>
  group_by(age, sex) |>
  mutate(smoothed = smooth_prob(x = child_labour,
                                size = all_children))
#> # A tibble: 200 × 6
#> # Groups:   age, sex [4]
#>    area    age   sex    child_labour all_children smoothed
#>    <chr>   <chr> <chr>         <int>        <dbl>    <dbl>
#>  1 Area 01 5-9   Female           42          368    0.121
#>  2 Area 02 5-9   Female           10           33    0.278
#>  3 Area 03 5-9   Female          112          453    0.247
#>  4 Area 04 5-9   Female          151          354    0.416
#>  5 Area 05 5-9   Female           23          101    0.230
#>  6 Area 06 5-9   Female            3            5    0.308
#>  7 Area 07 5-9   Female            3           14    0.231
#>  8 Area 08 5-9   Female            6           35    0.199
#>  9 Area 09 5-9   Female           14           48    0.276
#> 10 Area 10 5-9   Female          422         1889    0.224
#> # ℹ 190 more rows
…
