Using Package 'smoothscale' • smoothscale
…
Package smoothscale contains functions for doing
simple small area estimation with data that has sampling errors and/or
measurement errors. This vignette demonstrates the use of the functions,
using some synthetic data.

First we load the package.

library(smoothscale)

We will be using datasets syn_census and
syn_survey.

syn_census
#> # A tibble: 100 × 5
#>    area    age   sex    child_labour all_children
#>    <chr>   <chr> <chr>         <int>        <dbl>
#>  1 Area 01 5-9   Female          134          372
#>  2 Area 02 5-9   Female           14           35
#>  3 Area 03 5-9   Female           92          388
#>  4 Area 04 5-9   Female           46          345
#>  5 Area 05 5-9   Female           25          102
#>  6 Area 06 5-9   Female            2            5
#>  7 Area 07 5-9   Female            4           13
#>  8 Area 08 5-9   Female           10           34
#>  9 Area 09 5-9   Female            2           52
#> 10 Area 10 5-9   Female          578         2087
#> # ℹ 90 more rows
…
#> Attaching package: 'dplyr'
#> The following objects are masked from 'package:stats':
#> 
#>     filter, lag
#> The following objects are masked from 'package:base':
#> 
#>     intersect, setdiff, setequal, union
smoothed_agesex <- syn_census |>
  group_by(age, sex) |>
  mutate(direct = child_labour / all_children,
         smoothed = smooth_prob(x = child_labour,
                                size = all_children)) |>
  ungroup()
smoothed_agesex
#> # A tibble: 100 × 7
#>    area    age   sex    child_labour all_children direct smoothed
#>    <chr>   <chr> <chr>         <int>        <dbl>  <dbl>    <dbl>
#>  1 Area 01 5-9   Female          134          372 0.360    0.351 
#>  2 Area 02 5-9   Female           14           35 0.4      0.325 
#>  3 Area 03 5-9   Female           92          388 0.237    0.236 
#>  4 Area 04 5-9   Female           46          345 0.133    0.140 
#>  5 Area 05 5-9   Female           25          102 0.245    0.241 
#>  6 Area 06 5-9   Female            2            5 0.4      0.252 
#>  7 Area 07 5-9   Female            4           13 0.308    0.252 
#>  8 Area 08 5-9   Female           10           34 0.294    0.264 
#>  9 Area 09 5-9   Female            2           52 0.0385   0.0995
#> 10 Area 10 5-9   Female          578         2087 0.277    0.276 
#> # ℹ 90 more rows
…
We can use scale_prob() to scale the probabilities
estimated earlier using smooth_prob() so that they match
those from syn_survey at the national level.

scaled_agesex <- smoothed_agesex |>
  inner_join(syn_survey) |>
  group_by(age, sex) |>
  mutate(scaled = scale_prob(unscaled = smoothed,
                             target = prob_child_labour)) %>%
  ungroup()
#> Joining with `by = join_by(age, sex)`
scaled_agesex 
#> # A tibble: 100 × 9
#>    area  age   sex   child_labour all_children direct smoothed prob_child_labour
#>    <chr> <chr> <chr>        <int>        <dbl>  <dbl>    <dbl>             <dbl>
#>  1 Area… 5-9   Fema…          134          372 0.360    0.351              0.297
#>  2 Area… 5-9   Fema…           14           35 0.4      0.325              0.297
#>  3 Area… 5-9   Fema…           92          388 0.237    0.236              0.297
#>  4 Area… 5-9   Fema…           46          345 0.133    0.140              0.297
#>  5 Area… 5-9   Fema…           25          102 0.245    0.241              0.297
#>  6 Area… 5-9   Fema…            2            5 0.4      0.252              0.297
#>  7 Area… 5-9   Fema…            4           13 0.308    0.252              0.297
#>  8 Area… 5-9   Fema…           10           34 0.294    0.264              0.297
#>  9 Area… 5-9   Fema…            2           52 0.0385   0.0995             0.297
#> 10 Area… 5-9   Fema…          578         2087 0.277    0.276              0.297
#> # ℹ 90 more rows
#> # ℹ 1 more variable: scaled <dbl>
…
